…
# Top Authors, Titles, and Statistics

``` r
# (unique(data["Normalized.Creator"]))
# (unique(data["Normalized.Title"]))

data %>%
  group_by(Normalized.Creator) %>%
  summarise(TotalCheckouts = sum(Checkouts, na.rm = TRUE))
```

    ## # A tibble: 93 × 2
    ##    Normalized.Creator TotalCheckouts
    ##    <chr>                       <int>
    ##  1 A. R. Ammons                  284
    ##  2 Adrienne Rich                2592
    ##  3 Alice Walker                11953
    ##  4 Alison Bechdel              11829
    ##  5 Allen Ginsberg               2333
    ##  6 Amiri Baraka                  708
    ##  7 Amy Tan                     23506
    ##  8 Anne Sexton                   334
    ##  9 Annie Dillard               11050
    ## 10 Art Spiegelman               7341
    ## # ℹ 83 more rows
…
